{
  "suggest.maxCompleteItemCount": 10,
  "suggest.removeDuplicateItems": true,
  "suggest.defaultSortMethod": "alphabetical",
  "suggest.autoTrigger": "trigger",
  "languageserver": {
    "godot": {
        "host": "127.0.0.1",
        "filetypes": ["gdscript3"],
        "port": 6008
    }
  }
}
